ds202_HW4
…
##   Diet average_weight sd_weight Frequency
## 1    1           41.4 0.9947229        20
## 2    2           40.7 1.4944341        10
## 3    3           40.8 1.0327956        10
## 4    4           41.0 1.0540926        10

2

Each chick should have twelve weight measurements. Use the dplyr package to identify how many measurements are there for each chick. Extract a subset of the data for all chicks with complete information, name the data set complete, and print the first 3 rows. (Hint: you might want to use mutate to introduce a helper variable consisting of the number of observations)

ChickWeight %>% group_by(Chick) %>% summarize(n = n())

## # A tibble: 50 x 2
##    Chick     n
##    <ord> <int>
##  1 18        2
##  2 16        7
##  3 15        8
##  4 13       12
##  5 9        12
##  6 20       12
##  7 10       12
##  8 8        11
##  9 17       12
## 10 19       12
## #  with 40 more rows
…
